<?xml version="1.0" encoding="UTF-8"?>
<svg xmlns="http://www.w3.org/2000/svg" xmlns:xlink="http://www.w3.org/1999/xlink" viewBox="0 0 48 48" version="1.1" width="96px" height="96px">
<g id="surface1">
<path style=" fill:#03A9F4;" d="M 21 31 C 21 32.105469 21.894531 33 23 33 L 40 33 C 41.105469 33 42 32.105469 42 31 L 42 16 C 42 14.894531 41.105469 14 40 14 L 23 14 C 21.894531 14 21 14.894531 21 16 Z "/>
<path style=" fill:#B3E5FC;" d="M 42 16.976563 L 42 16 C 42 15.570313 41.863281 15.175781 41.632813 14.851563 L 30.367188 21.785156 L 22.828125 17.128906 L 22.125 19 L 30.585938 24 Z "/>
<path style=" fill:#0277BD;" d="M 27 41.460938 L 6 37.460938 L 6 9.460938 L 27 5.460938 Z "/>
<path style=" fill:#FFFFFF;" d="M 21.214844 18.3125 C 20.117188 17.035156 18.671875 16.398438 16.886719 16.398438 C 14.996094 16.398438 13.480469 17.066406 12.335938 18.402344 C 11.191406 19.738281 10.613281 21.488281 10.613281 23.648438 C 10.613281 25.691406 11.179688 27.359375 12.304688 28.632813 C 13.429688 29.90625 14.898438 30.542969 16.683594 30.542969 C 18.523438 30.542969 20.015625 29.890625 21.15625 28.566406 C 22.300781 27.253906 22.867188 25.523438 22.867188 23.367188 C 22.867188 21.28125 22.316406 19.59375 21.214844 18.3125 Z M 19.050781 26.734375 C 18.480469 27.503906 17.710938 27.886719 16.734375 27.886719 C 15.796875 27.886719 15.035156 27.492188 14.449219 26.699219 C 13.871094 25.914063 13.582031 24.839844 13.582031 23.488281 C 13.582031 22.152344 13.871094 21.074219 14.449219 20.265625 C 15.035156 19.453125 15.820313 19.054688 16.804688 19.054688 C 17.769531 19.054688 18.523438 19.445313 19.074219 20.230469 C 19.628906 21.027344 19.90625 22.125 19.90625 23.539063 C 19.90625 24.90625 19.617188 25.96875 19.050781 26.734375 Z "/>
</g>
</svg>
